…
> weather_f |> complete.cases() |> summary()
   Mode   FALSE    TRUE 
logical    2728   23382 

> wf_cc_vec <- weather_f |> complete.cases()
> wf_cc <- weather_f[wf_cc_vec]
Error in `weather_f[wf_cc_vec]`:
! Cannot subset columns with `wf_cc_vec`.
✖ Logical subscript `wf_cc_vec` must be size 1 or 7, not 26110.
Run `rlang::last_trace()` to see where the error occurred.

> wf_cc <- weather_f |> dplyr::filter(wf_cc_vec)

> wf_cc
# A tibble: 23,382 × 7
    temp  dewp humid wind_speed precip pressure visib
   <dbl> <dbl> <dbl>      <dbl>  <dbl>    <dbl> <dbl>
 1  39.0  26.1  59.4      10.4       0    1012     10
 2  39.0  27.0  61.6       8.06      0    1012.    10
 3  39.0  28.0  64.4      11.5       0    1012.    10
 4  39.9  28.0  62.2      12.7       0    1012.    10
 5  39.0  28.0  64.4      12.7       0    1012.    10
 6  37.9  28.0  67.2      11.5       0    1012.    10
 7  39.0  28.0  64.4      15.0       0    1012.    10
 8  39.9  28.0  62.2      10.4       0    1012.    10
 9  39.9  28.0  62.2      15.0       0    1013.    10
10  41    28.0  59.6      13.8       0    1012.    10
# ℹ 23,372 more rows
# ℹ Use `print(n = ...)` to see more rows
```
…
